…
#### which state had the most protests?

```r
state_protests <- protests %>% 
  mutate(protests, 
         abb = str_to_upper(str_sub(Location, start = -2))) %>% 
  count(abb) %>% 
  arrange(desc(n))
state_protests
```

```
## # A tibble: 55 × 2
##    abb       n
##    <chr> <int>
##  1 CA     4439
##  2 NY     2688
##  3 FL     1823
##  4 PA     1656
##  5 TX     1649
##  6 MI     1411
##  7 WA     1376
##  8 OR     1368
##  9 IL     1273
## 10 MA     1265
## # … with 45 more rows
```
…
